{
  "type": "service_account",
  "project_id": "javafx-firestore1",
  "private_key_id": "f0dbefb86d24f0c66c7cff63ead6c99892908f31",
  "private_key": "-----BEGIN PRIVATE KEY-----\nMIIEvAIBADANBgkqhkiG9w0BAQEFAASCBKYwggSiAgEAAoIBAQDN8D7P+RR8fxVq\nT2MyGpEz+qbmPbJzCJF+X3EbvzzIqDe/rH708AGBtwx1bKFBYkgPQ91vO37Pc3ak\nB8P263rNgy8ph41n8JW+Fa93ADAWaiD/iFOWBYtAqItnqmSzSXjMkCR/x1d2oaNH\nSbwGLdKMMDc86EF0UnuQX5dQohcUyBq0j77fpOCjQHZw5eDAu5XTzgep6dhQbWX3\nPIEoTrndTF11Idn7U28u5xq9qgmBLcR/+pJUEuqIMSH/EBEkUiFEGc7Qb8eB1Zkv\nHrHK0U2pXI9rwvGD52d0n03OpKhAZa8Gm/cqtYiR5EqgYgxELlPZiNqpsljjqQqB\nJqUW1KV/AgMBAAECggEADws7U28DJ5sTAeqduPXG4LCxS4V7STr5ge1P8nJ0asYb\nGHXt6k+0FHk+QD+4wfF/iRnwjaUffOEW7CGjF6EZHfU010hPNKYXEkU8RamuWZzU\nH0aisIVkKEuHr4F7jLtTx0HKYMk7ou9o4ZbJ1Pu480O8bUccLPavjxrkj1/f5sUb\nxCB1nbP2uqeyNatXCvZYaooExcreEChysBeJy9nkvnIZseKxjgoem2JIDegzi8Ad\nRe9v8w3Kg8yC75YSRqwZ+Wef0UIxNXsGi+1ya+7HJWR4xYkTmlFMqsyEk6aYgs9H\n88NxBx0BXPKq3aIhr2UrvF429mBZhM46z10C6d5fIQKBgQD4SThobMATiwgA3qvG\nuSNtgtVVQXknf9wmzCRUjrj416h0nxczB7lpJ6Q1alp6eJvdSS6+GccME/CYZk+R\nOcqv0b488KXOQCqI06pit/C/QNwzgACKtT3kCZRPwYGCbQqfii39L1b6zDkp0tu8\nXGmUpFtkB0xYc10biVGrgE43nwKBgQDUVjUaLTAe9Gy1ju+Mr3o+/q4/E+R+SCGo\nX56A2hbpdLYOUjX+sAebl0uyAicHbfjdBl2TIBT5xhcp9KvCefnQLE2nsn9GMb9h\nzGpe/P8IDJo7JFCT6sRpL0AtchxtpPPfAsInTAft8fEv62OlFfMnc1C81sjufYSO\nBG8s0jZGIQKBgFaApB91rCHi8YHkEnLk89vmlk7ixcQmPtxhiVLQes9vy2f+OYX0\n7fsd7Y8So71BogQhyCBBOOETXWKrWpNdUCmbaK0wpoPKRUdwf09viHgJr+5dbVLm\nPE7jq4FyCJ4ZQXc+HDG2uZYdatkQdrAUflBkRtb91/KFFu5OFF8tD5M/AoGAFhmG\n21uap44fBmKDEixtV8MgFZaXcIFHZ4PUNmr8eX3ZOPJbhk+B6zK7ASLyNva+MRrp\ngFeVd02juY0ql0okswL5bhvI3WBuH9qrs4k3bfoJz1//NvX3TU9KqbA3vz2s2Cgs\nVvS12pEU3jzsmREIxrFc1Nqx/Qh5VGKnw415cqECgYADptJ3ZrJmui/0RAMpfOIh\nqBKQoZoU4W34Iyau45OS/C9UmARbKLCeYG8oiKeTR3LC7XQ15gNBLv/IyBi26GEK\nnQ5dPY2ljpC44tGLRvwD5F4gmrInPkOD5wA9YdVLSwR/0fA22widhSVkTRPXYRPl\nAw8fZFeBJUmhAFZl3jkCzg==\n-----END PRIVATE KEY-----\n",
  "client_email": "firebase-adminsdk-9o12h@javafx-firestore1.iam.gserviceaccount.com",
  "client_id": "110300899342228247937",
  "auth_uri": "https://accounts.google.com/o/oauth2/auth",
  "token_uri": "https://oauth2.googleapis.com/token",
  "auth_provider_x509_cert_url": "https://www.googleapis.com/oauth2/v1/certs",
  "client_x509_cert_url": "https://www.googleapis.com/robot/v1/metadata/x509/firebase-adminsdk-9o12h%40javafx-firestore1.iam.gserviceaccount.com",
  "universe_domain": "googleapis.com"
}
